<?xml version="1.0" encoding="UTF-8" standalone="no"?>
<svg
   id="Layer_1"
   style="enable-background:new 0 0 512 512;"
   version="1.1"
   viewBox="0 0 512 512"
   xml:space="preserve"
   sodipodi:docname="mobile-tablet.svg"
   inkscape:version="1.1.1 (3bf5ae0d25, 2021-09-20, custom)"
   xmlns:inkscape="http://www.inkscape.org/namespaces/inkscape"
   xmlns:sodipodi="http://sodipodi.sourceforge.net/DTD/sodipodi-0.dtd"
   xmlns="http://www.w3.org/2000/svg"
   xmlns:svg="http://www.w3.org/2000/svg"><defs
     id="defs13" /><sodipodi:namedview
     id="namedview11"
     pagecolor="#ffffff"
     bordercolor="#666666"
     borderopacity="1.0"
     inkscape:pageshadow="2"
     inkscape:pageopacity="0.0"
     inkscape:pagecheckerboard="0"
     showgrid="false"
     inkscape:zoom="1.7050781"
     inkscape:cx="255.70676"
     inkscape:cy="255.70676"
     inkscape:window-width="3769"
     inkscape:window-height="2132"
     inkscape:window-x="71"
     inkscape:window-y="0"
     inkscape:window-maximized="1"
     inkscape:current-layer="Layer_1" /><g
     id="g8"
     transform="matrix(-1,0,0,1,512,0)"><path
       d="M 466,102.9 H 264.6 c -13.4,0 -24.2,10.8 -24.2,24.2 v 354.7 c 0,13.4 10.8,24.2 24.2,24.2 H 466 c 13.4,0 24.2,-10.8 24.2,-24.2 V 127.1 c 0,-13.3 -10.9,-24.2 -24.2,-24.2 z m -137.3,18.6 h 73.2 c 1.6,0 2.9,1.3 2.9,2.9 0,1.6 -1.3,2.9 -2.9,2.9 h -73.2 c -1.6,0 -2.9,-1.3 -2.9,-2.9 0,-1.6 1.3,-2.9 2.9,-2.9 z m -8.9,361.6 h -28.4 c -4.2,0 -7.7,-3.4 -7.7,-7.7 0,-4.3 3.4,-7.7 7.7,-7.7 h 28.4 c 4.2,0 7.7,3.4 7.7,7.7 0,4.3 -3.4,7.7 -7.7,7.7 z m 61.5,-1.4 c 0,5.4 -4.4,9.8 -9.8,9.8 H 359 c -5.4,0 -9.8,-4.4 -9.8,-9.8 v -12.5 c 0,-5.4 4.4,-9.8 9.8,-9.8 h 12.5 c 5.4,0 9.8,4.4 9.8,9.8 z m 57.9,1.4 h -28.4 c -4.2,0 -7.7,-3.4 -7.7,-7.7 0,-4.3 3.4,-7.7 7.7,-7.7 h 28.4 c 4.2,0 7.7,3.4 7.7,7.7 0,4.3 -3.5,7.7 -7.7,7.7 z m 38.5,-37.6 H 252.9 V 146.9 h 224.8 v 298.6 z"
       id="path2" /><g
       id="g6"><path
         d="M 225.4,481.8 V 432.4 H 49.9 V 56 h 294.4 v 32 h 28.1 V 41.8 C 372.4,22 356.4,6 336.6,6 H 57.7 C 37.9,6 21.8,22 21.8,41.8 v 404.8 c 0,19.8 16,35.8 35.8,35.8 h 167.8 c 0.1,-0.2 0,-0.4 0,-0.6 z m -28.3,-11 c -7,0 -12.6,-5.6 -12.6,-12.6 0,-7 5.6,-12.6 12.6,-12.6 7,0 12.6,5.6 12.6,12.6 0,7 -5.6,12.6 -12.6,12.6 z"
         id="path4" /></g></g></svg>
